{
  "passwordEncoderType" : "bcrypt",
  "users" : [
    {
      "username" : "admin",
      "password" : "$2a$15$BKjjU27ASjh7xBQp/cgylulFqoHpGRmtkzalPQr7dkgP09iT4fhaG",
      "backupsEnabled" : true,
      "updatesAllowed" : true
    }
  ]
}